{
  "cordova-plugin-whitelist": {
    "source": {
      "type": "registry",
      "id": "cordova-plugin-whitelist@1"
    },
    "is_top_level": true,
    "variables": {}
  },
  "cordova-plugin-geolocation": {
    "source": {
      "type": "registry",
      "id": "cordova-plugin-geolocation@4.0.1"
    },
    "is_top_level": true,
    "variables": {}
  },
  "com-sarriaroman-photoviewer": {
    "source": {
      "type": "registry",
      "id": "com-sarriaroman-photoviewer"
    },
    "is_top_level": true,
    "variables": {}
  }
}